<?xml version="1.0" encoding="UTF-8" standalone="no"?>
<svg
   xmlns:dc="http://purl.org/dc/elements/1.1/"
   xmlns:cc="http://creativecommons.org/ns#"
   xmlns:rdf="http://www.w3.org/1999/02/22-rdf-syntax-ns#"
   xmlns:svg="http://www.w3.org/2000/svg"
   xmlns="http://www.w3.org/2000/svg"
   xmlns:sodipodi="http://sodipodi.sourceforge.net/DTD/sodipodi-0.dtd"
   xmlns:inkscape="http://www.inkscape.org/namespaces/inkscape"
   viewBox="-230 382 150 150"
   id="logo"
   width="150"
   height="150"
   version="1.1"
   sodipodi:docname="WA.svg"
   inkscape:version="0.92.3 (2405546, 2018-03-11)">
  <metadata
     id="metadata37">
    <rdf:RDF>
      <cc:Work
         rdf:about="">
        <dc:format>image/svg+xml</dc:format>
        <dc:type
           rdf:resource="http://purl.org/dc/dcmitype/StillImage" />
        <dc:title>logo</dc:title>
      </cc:Work>
    </rdf:RDF>
  </metadata>
  <defs
     id="defs35" />
  <sodipodi:namedview
     pagecolor="#ffffff"
     bordercolor="#666666"
     borderopacity="1"
     objecttolerance="10"
     gridtolerance="10"
     guidetolerance="10"
     inkscape:pageopacity="0"
     inkscape:pageshadow="2"
     inkscape:window-width="1920"
     inkscape:window-height="1079"
     id="namedview33"
     showgrid="false"
     inkscape:zoom="1.9066667"
     inkscape:cx="-8.5003482"
     inkscape:cy="56.676626"
     inkscape:window-x="0"
     inkscape:window-y="-28"
     inkscape:window-maximized="1"
     inkscape:current-layer="logo"
     units="px"
     fit-margin-top="0"
     fit-margin-left="0"
     fit-margin-right="0"
     fit-margin-bottom="0" />
  <title
     id="title2">logo</title>
  <g
     id="g881"
     transform="translate(-4.9999926e-8,10.913768)">
    <g
       transform="matrix(1.386147,0,0,1.386147,37.466511,-60.4842)"
       style="fill:#e3474b;fill-opacity:1"
       id="g30">
      <g
         style="fill:#e3474b;fill-opacity:1"
         id="g8" />
      <g
         style="fill:#e3474b;fill-opacity:1"
         id="g28">
        <g
           style="fill:#e3474b;fill-opacity:1"
           id="g12">
          <path
             inkscape:connector-curvature="0"
             style="fill:#e3474b;fill-opacity:1"
             id="path10"
             d="m -159,405.4 -6.7,-14.3 c -0.2,-0.5 -0.7,-0.8 -1.3,-0.8 -0.5,0 -1,0.3 -1.3,0.8 l -5.8,12.3 c -0.3,0.6 -0.1,1.2 0.3,1.6 0.5,0.4 1.1,0.4 1.7,0.2 l 8,-4 c 0.7,1.5 1.4,3 2,4.2 z m -11,-4 3.1,-6.4 c 0,0 0.8,1.8 1.9,4 z" />
        </g>
        <g
           style="fill:#e3474b;fill-opacity:1"
           id="g16">
          <path
             inkscape:connector-curvature="0"
             style="fill:#e3474b;fill-opacity:1"
             id="path14"
             d="m -128.6,405.4 -6.7,-14.3 c -0.2,-0.5 -0.7,-0.8 -1.3,-0.8 -0.5,0 -1,0.3 -1.3,0.8 l -5.8,12.3 c -0.3,0.6 -0.1,1.2 0.3,1.6 0.5,0.4 1.1,0.4 1.7,0.2 l 8,-4 c 0.7,1.5 1.4,3 2,4.2 z m -11,-4 3.1,-6.4 c 0,0 0.8,1.8 1.9,4 z" />
        </g>
        <path
           inkscape:connector-curvature="0"
           style="fill:#e3474b;fill-opacity:1"
           id="path18"
           d="m -175.5,390.3 c -0.9,2.8 -2,6.6 -2.8,9.2 -1.3,-3.6 -2.9,-8.3 -2.9,-8.3 -0.2,-0.6 -0.7,-0.9 -1.3,-0.9 -0.6,0 -1.1,0.4 -1.3,0.9 0,0 -1.7,4.7 -3,8.3 -0.8,-2.6 -2,-6.4 -2.8,-9.3 h -2.9 l 4.3,14.1 c 0.2,0.6 0.7,1 1.3,1 0.6,0 1.2,-0.4 1.4,-0.9 0,0 1.8,-5 3.1,-8.6 1.3,3.6 3,8.6 3,8.6 0.2,0.6 0.8,0.9 1.4,0.9 0.6,0 1.1,-0.4 1.3,-1 l 4.3,-14.1 h -3.1 z" />
        <path
           inkscape:connector-curvature="0"
           style="fill:#e3474b;fill-opacity:1"
           id="path20"
           d="m -102.2,405.4 c 0.9,-2.8 2,-6.6 2.8,-9.2 1.3,3.6 2.9,8.3 2.9,8.3 0.2,0.6 0.7,0.9 1.3,0.9 0.6,0 1.1,-0.4 1.3,-0.9 0,0 1.7,-4.7 3,-8.3 0.8,2.6 2,6.4 2.8,9.3 h 2.9 l -4.3,-14.1 c -0.2,-0.6 -0.7,-1 -1.3,-1 -0.6,0 -1.2,0.4 -1.4,0.9 0,0 -1.8,5 -3.1,8.6 -1.3,-3.6 -3,-8.6 -3,-8.6 -0.2,-0.6 -0.8,-0.9 -1.4,-0.9 -0.6,0 -1.1,0.4 -1.3,1 l -4.3,14.1 h 3.1 z" />
        <path
           inkscape:connector-curvature="0"
           style="fill:#e3474b;fill-opacity:1"
           id="path22"
           d="m -145.6,403.2 c -1.5,-2.1 -3.9,-5.7 -4.5,-6.3 -0.3,-0.3 -0.6,-0.5 -1.1,-0.5 l 5,-3.5 c 0.6,-0.4 0.8,-1.3 0.3,-2 -0.4,-0.6 -1.3,-0.8 -2,-0.3 l -6.7,4.7 v -4.9 h -2.8 v 15.1 h 2.8 v -6.8 l 0.7,-0.5 c 0.3,0 1,0.1 1.6,0.8 0.4,0.4 2.4,3.3 4.2,5.9 0.4,0.6 1.3,0.8 2,0.4 0.8,-0.6 0.9,-1.5 0.5,-2.1 z" />
        <path
           inkscape:connector-curvature="0"
           style="fill:#e3474b;fill-opacity:1"
           id="path24"
           d="m -117.5,390.3 v 9.6 l -6.8,-9 c -0.4,-0.5 -1,-0.7 -1.6,-0.5 -0.6,0.2 -1,0.7 -1,1.3 v 13.7 h 2.8 v -9.6 c 2.7,3.5 6.8,9 6.8,9 0.4,0.5 1,0.7 1.6,0.5 0.6,-0.2 1,-0.7 1,-1.3 v -13.7 z" />
        <rect
           style="fill:#e3474b;fill-opacity:1"
           id="rect26"
           height="15.1"
           width="2.8"
           y="390.29999"
           x="-110.5" />
      </g>
    </g>
    <g
       transform="matrix(3.1229319,0,0,3.1229319,654.99681,-858.56166)"
       id="g864">
      <path
         inkscape:connector-curvature="0"
         d="m -267.77063,402.47343 c -2.4,1.8 -4.3,4.5 -5.1,7.7 -1.2,4.8 0.2,9.7 3.4,13 0,0 0.6,0.6 0.7,0.5 0,0 0,0 -0.1,-0.3 -2.5,-3.9 -1.2,-8 -0.5,-9.6 0.1,-0.3 0.2,-0.2 0.2,-0.2 0.1,0 0.2,0.4 0.2,0.4 0.6,5.8 2.6,9.6 3.8,11.4 0,0 0.3,0.5 0.5,0.3 0,0 0.1,-0.1 0.1,-0.4 -0.1,-1.7 0.3,-5.4 3.6,-12.2 3.1,-6.4 4.5,-9.9 5,-11.6 0,0 0.2,-0.5 0,-0.6 0,0 -0.2,-0.1 -0.5,0.3 -1.7,1.9 -5.4,6.1 -7.1,8.5 0,0 -0.2,0.2 -0.3,0.2 0,0 -0.1,0 -0.1,-0.4 0.1,-1.9 0.8,-6.8 3.3,-9 0,0 0.3,-0.2 0.2,-0.4 0,0 -0.1,-0.2 -0.7,0 -2.4,0.9 -6.5,3 -8.9,8.2 0,0 -0.1,0.3 -0.2,0.3 0,0 -0.1,0 0,-0.5 0.2,-1.3 0.8,-3.7 2.8,-5.6 0,0 0.4,-0.4 0.3,-0.4 0.1,0 0,0 -0.6,0.4 z"
         id="path4"
         style="fill:#e3474b;fill-opacity:1" />
      <path
         inkscape:connector-curvature="0"
         d="m -250.97063,424.67343 c 2.5,-1.8 4.3,-4.5 5.1,-7.7 1.2,-4.8 -0.2,-9.7 -3.4,-13 0,0 -0.6,-0.6 -0.7,-0.5 0,0 0,0 0.1,0.3 2.5,3.9 1.2,8 0.5,9.6 -0.1,0.3 -0.2,0.2 -0.2,0.2 -0.1,0 -0.2,-0.4 -0.2,-0.4 -0.6,-5.8 -2.6,-9.6 -3.8,-11.4 0,0 -0.3,-0.5 -0.5,-0.3 0,0 -0.1,0.1 -0.1,0.4 0.1,1.7 -0.3,5.4 -3.6,12.2 -3.1,6.4 -4.5,9.9 -5,11.6 0,0 -0.2,0.5 0,0.6 0,0 0.2,0.1 0.5,-0.3 1.7,-1.9 5.4,-6.1 7.1,-8.5 0,0 0.2,-0.2 0.3,-0.2 0,0 0.1,0 0.1,0.4 -0.1,1.9 -0.8,6.8 -3.3,9 0,0 -0.3,0.2 -0.2,0.4 0,0 0.1,0.2 0.6,0 2.4,-0.9 6.5,-3 8.9,-8.2 0,0 0.1,-0.3 0.2,-0.3 0,0 0.1,0 0,0.5 -0.2,1.3 -0.8,3.7 -2.8,5.6 0,0 -0.4,0.4 -0.3,0.4 0.1,0 0.1,0 0.7,-0.4 z"
         id="path6"
         style="fill:#e3474b;fill-opacity:1" />
    </g>
  </g>
</svg>
